<?xml version="1.0" standalone="no"?>
<!DOCTYPE svg PUBLIC "-//W3C//DTD SVG 20010904//EN"
 "http://www.w3.org/TR/2001/REC-SVG-20010904/DTD/svg10.dtd">
<svg version="1.0" xmlns="http://www.w3.org/2000/svg"
 width="150.000000pt" height="150.000000pt" viewBox="0 0 150.000000 150.000000"
 preserveAspectRatio="xMidYMid meet">
<metadata>
Created by potrace 1.11, written by Peter Selinger 2001-2013
</metadata>
<g transform="translate(0.000000,150.000000) scale(0.100000,-0.100000)"
fill="#000000" stroke="none">
<path d="M0 750 l0 -750 750 0 750 0 0 750 0 750 -750 0 -750 0 0 -750z m882
312 c27 -70 101 -269 167 -442 65 -173 117 -317 116 -318 -2 -2 -48 -1 -103 3
l-100 7 -51 142 c-28 77 -59 147 -68 154 -11 8 -58 12 -144 12 l-127 0 -24
-72 -25 -73 -96 -3 -97 -3 11 28 c29 75 249 657 249 659 0 2 12 10 28 18 18
10 57 15 122 16 l95 0 47 -128z"/>
<path d="M684 938 c-15 -46 -35 -104 -45 -130 l-19 -48 80 0 c66 0 82 3 87 17
5 14 -62 243 -72 243 -2 0 -16 -37 -31 -82z"/>
</g>
</svg>
